Ensime@0.41.0
afterglow-monokai-syntax@1.3.5
atom-ctags@5.1.0
atom-material-syntax@1.0.6
atom-material-syntax-dark@1.0.0
atom-material-syntax-light@0.4.6
atom-material-ui@2.0.4
atom-monokai@0.10.9
base16-syntax@1.8.1
browser-plus@0.0.97
busy-signal@1.4.3
git-time-machine@1.5.9
gitignore-snippets@0.2.5
hyperclick@0.1.1
intentions@1.1.2
language-docker@1.1.8
language-scala@1.1.8
linter@2.2.0
linter-scalac@1.4.4
linter-shellcheck@1.4.4
linter-ui-default@1.6.2
platformio-ide-terminal@2.5.2
pure-syntax@0.2.1
sbt@0.12.0
script@3.15.0
seti-ui@1.9.0
vim-mode-plus@0.93.0

